{
	"info": {
		"_postman_id": "823fd28a-1492-41d6-ae48-fb43da8fbebb",
		"name": "Bookings",
		"schema": "https://schema.getpostman.com/json/collection/v2.1.0/collection.json",
		"_exporter_id": "29395183"
	},
	"item": [
		{
			"name": "retrive",
			"event": [
				{
					"listen": "prerequest",
					"script": {
						"exec": [
							""
						],
						"type": "text/javascript"
					}
				},
				{
					"listen": "test",
					"script": {
						"exec": [
							"//step 1 validate status code\r",
							"pm.test(\"Status code is 200\", function () {\r",
							"    pm.response.to.have.status(200);\r",
							"});\r",
							"// step 2 extract response body\r",
							"var responsebody=pm.response.json();\r",
							"// step 3 extract response param\r",
							"var firstname=responsebody.firstname;\r",
							"var lastname=responsebody.lastname;\r",
							"var totalprice=responsebody.totalprice;\r",
							"var depositpaid=responsebody.depositpaid;\r",
							"var checkin=responsebody.bookingdates.checkin;\r",
							"var checkout=responsebody.bookingdates.checkout;\r",
							"var additional=responsebody.additionalneeds;\r",
							"\r",
							"// step 4 validate responsebody\r",
							"pm.test(\"Validate response body firstname\", function()\r",
							"{\r",
							"    pm.expect(firstname).to.eql(\"John\");\r",
							"})\r",
							"pm.test(\"Validate response body lastname\", function()\r",
							"{\r",
							"    pm.expect(lastname).to.eql(\"Smith\");\r",
							"})\r",
							"pm.test(\"Validate response body totalprice\", function()\r",
							"{\r",
							"    pm.expect(totalprice).to.eql(111);\r",
							"})\r",
							"pm.test(\"Validate response body depositpaid\", function()\r",
							"{\r",
							"    pm.expect(depositpaid).to.eql(true);\r",
							"})\r",
							"pm.test(\"Validate response body checkin date\", function()\r",
							"{\r",
							"    pm.expect(checkin).to.eql(\"2018-01-01\");\r",
							"})\r",
							"pm.test(\"Validate response body checkout date\", function()\r",
							"{\r",
							"    pm.expect(checkout).to.eql(\"2019-01-01\");\r",
							"})\r",
							"pm.test(\"Validate response body additional needs\", function()\r",
							"{\r",
							"    pm.expect(additional).to.eql(\"Breakfast\");\r",
							"})\r",
							""
						],
						"type": "text/javascript"
					}
				}
			],
			"protocolProfileBehavior": {
				"disableBodyPruning": true
			},
			"request": {
				"auth": {
					"type": "basic",
					"basic": [
						{
							"key": "username",
							"value": "",
							"type": "string"
						},
						{
							"key": "password",
							"value": "",
							"type": "string"
						}
					]
				},
				"method": "GET",
				"header": [
					{
						"key": "",
						"value": "",
						"type": "text",
						"disabled": true
					}
				],
				"body": {
					"mode": "raw",
					"raw": "",
					"options": {
						"raw": {
							"language": "json"
						}
					}
				},
				"url": {
					"raw": "{{get_url}}",
					"host": [
						"{{get_url}}"
					]
				}
			},
			"response": []
		},
		{
			"name": "create",
			"event": [
				{
					"listen": "test",
					"script": {
						"exec": [
							"//step 1 validate status code\r",
							"pm.test(\"Status code is 200\", function () {\r",
							"    pm.response.to.have.status(200);\r",
							"});\r",
							"// step 2 extract request body\r",
							"var requestbody=pm.request.body.raw;\r",
							"requestbody=JSON.parse(requestbody);\r",
							"// step 3 extract request body parameters\r",
							"var req_fname=requestbody.firstname;\r",
							"var req_lname=requestbody.lastname;\r",
							"var req_price=requestbody.totalprice;\r",
							"var req_deposit=requestbody.depositpaid;\r",
							"var req_checkindate=requestbody.bookingdates.checkin;\r",
							"var req_checkoutdate=requestbody.bookingdates.checkout;\r",
							"var req_addneeds=requestbody.additionalneeds;\r",
							"// step 4 extract response body and response body param\r",
							"var responsebody=pm.response.json();\r",
							"var res_id=responsebody.booking.bookingid;\r",
							"var res_fname=responsebody.booking.firstname;\r",
							"var res_lname=responsebody.booking.lastname;\r",
							"var res_price=responsebody.booking.totalprice;\r",
							"var res_deposit=responsebody.booking.depositpaid;\r",
							"var res_chekindate=responsebody.booking.bookingdates.checkin;\r",
							"var res_checkoutdate=responsebody.booking.bookingdates.checkout;\r",
							"var res_needs=responsebody.additionalneeds;\r",
							"// step 4 validate responsebody\r",
							"pm.test(\"validate response body param id\", function()\r",
							"{\r",
							"    pm.expect(res_id).to.not.null;\r",
							"    pm.expect(res_id).to.not.eql(0);\r",
							"})\r",
							"pm.test(\"validate response body param firstname\", function()\r",
							"{\r",
							"    pm.expect(res_fname).to.eql(req_fname);    \r",
							"})\r",
							"pm.test(\"validate response body param lastname\", function()\r",
							"{\r",
							"    pm.expect(res_lname).to.eql(req_lname);   \r",
							"})\r",
							"pm.test(\"validate response body param total price\", function()\r",
							"{\r",
							"    pm.expect(res_price).to.eql(req_price); \r",
							"})\r",
							"pm.test(\"validate response body param deposit paid\", function()\r",
							"{\r",
							"    pm.expect(res_deposit).to.eql(req_deposit);   \r",
							"})\r",
							"pm.test(\"validate response body param checkin date\", function()\r",
							"{\r",
							"    pm.expect(res_chekindate).to.eql(req_chekindate);   \r",
							"})\r",
							"pm.test(\"validate response body param checkout date\", function()\r",
							"{\r",
							"    pm.expect(res_checkoutdate).to.eql(req_checkoutdate);   \r",
							"})\r",
							""
						],
						"type": "text/javascript"
					}
				}
			],
			"request": {
				"method": "POST",
				"header": [],
				"body": {
					"mode": "raw",
					"raw": "{\r\n    \"firstname\" : \"Jim\",\r\n    \"lastname\" : \"Brown\",\r\n    \"totalprice\" : 111,\r\n    \"depositpaid\" : true,\r\n    \"bookingdates\" : {\r\n        \"checkin\" : \"2018-01-01\",\r\n        \"checkout\" : \"2019-01-01\"\r\n    },\r\n    \"additionalneeds\" : \"Breakfast\"\r\n}",
					"options": {
						"raw": {
							"language": "json"
						}
					}
				},
				"url": {
					"raw": "{{post_create}}",
					"host": [
						"{{post_create}}"
					]
				}
			},
			"response": []
		},
		{
			"name": "token",
			"event": [
				{
					"listen": "prerequest",
					"script": {
						"exec": [
							""
						],
						"type": "text/javascript"
					}
				},
				{
					"listen": "test",
					"script": {
						"exec": [
							"//step 1 validate status code\r",
							"pm.test(\"Status code is 200\", function () {\r",
							"    pm.response.to.have.status(200);\r",
							"});\r",
							"\r",
							"//step 2 extract responsebody and param\r",
							"var responsebody=pm.response.json();\r",
							"var token=responsebody.token;\r",
							"// validate response param token\r",
							"pm.test(\"validate response body token\", function()\r",
							"{\r",
							"    pm.expect(token).to.not.null;\r",
							"    pm.expect(token).to.not.eql(0);\r",
							"})\r",
							""
						],
						"type": "text/javascript"
					}
				}
			],
			"request": {
				"method": "POST",
				"header": [],
				"body": {
					"mode": "raw",
					"raw": "{\r\n    \"username\" : \"admin\",\r\n    \"password\" : \"password123\"\r\n}",
					"options": {
						"raw": {
							"language": "json"
						}
					}
				},
				"url": {
					"raw": "https://restful-booker.herokuapp.com/auth",
					"protocol": "https",
					"host": [
						"restful-booker",
						"herokuapp",
						"com"
					],
					"path": [
						"auth"
					]
				}
			},
			"response": []
		},
		{
			"name": "booker",
			"event": [
				{
					"listen": "test",
					"script": {
						"exec": [
							"//step 1 validate status code\r",
							"pm.test(\"Status code is 200\", function () {\r",
							"    pm.response.to.have.status(200);\r",
							"});\r",
							"// step 2 extract response body\r",
							"var responsebody=pm.response.json();\r",
							"var count=Object.keys(responsebody).length;\r",
							"\r",
							"// step 3 extract response param\r",
							"for(i=0;i<count;i++)\r",
							"{\r",
							"var res_bookingid=responsebody[i].bookingid;\r",
							"\r",
							"// step 4 validate responsebody\r",
							"pm.test(\"validate response body param bookingid\"), function()\r",
							"{\r",
							"    pm.expect(res_bookingid).to.not.null;\r",
							"    pm.expect(res_bookingid).to.not.eql(0);\r",
							"}\r",
							"}"
						],
						"type": "text/javascript"
					}
				}
			],
			"request": {
				"method": "GET",
				"header": [],
				"url": {
					"raw": "{{get_book}}",
					"host": [
						"{{get_book}}"
					]
				}
			},
			"response": []
		}
	],
	"event": [
		{
			"listen": "prerequest",
			"script": {
				"type": "text/javascript",
				"exec": [
					""
				]
			}
		},
		{
			"listen": "test",
			"script": {
				"type": "text/javascript",
				"exec": [
					""
				]
			}
		}
	]
}