{
	"info": {
		"_postman_id": "7ae7518f-d96f-4a52-9018-121536610bed",
		"name": "rest_itiration",
		"schema": "https://schema.getpostman.com/json/collection/v2.1.0/collection.json",
		"_exporter_id": "29395183"
	},
	"item": [
		{
			"name": "Post_test",
			"event": [
				{
					"listen": "test",
					"script": {
						"exec": [
							"//step 1 fetching collection variables into local variables\r",
							"var start=pm.collectionVariables.get(\"count_start\");\r",
							"var end=pm.collectionVariables.get(\"count_end\");\r",
							"\r",
							"// step 2 fetch status code\r",
							"var statuscode=pm.response.code;\r",
							"//step 3 compare the status code\r",
							"for (i=start;i<end;i++)\r",
							"{\r",
							"if (statuscode !=201)\r",
							"{\r",
							"if (start<eval(end-1))\r",
							"{\r",
							"pm.collectionVariables.set(\"count_start\",eval(start+1));\r",
							"postman.setNextRequest(\"Post_test\");\r",
							"} \r",
							"else\r",
							"{\r",
							"postman.setNextRequest(null);\r",
							"pm.collectionVariables.set(\"count_start\",0);\r",
							"\r",
							"pm.test(\"Status code is 201\", function () {\r",
							"pm.response.to.have.status(201);\r",
							"});\r",
							"}\r",
							"}\r",
							"else\r",
							"{\r",
							"//step 4 declare expected results\r",
							"//step 4.1 declare expected date\r",
							"//var actualDate= new Date().toJSON().slice(0,10);\r",
							"var actualDate= new Date().toISOString().slice(0,10);\r",
							"//step 4.2 fetch request parameters from request body\r",
							"var requestBody=pm.request.body.raw;\r",
							"requestBody=JSON.parse(requestBody);\r",
							"var req_name=requestBody.name;\r",
							"var req_job=requestBody.job;\r",
							"\r",
							"//step 5 validate response body\r",
							"//step 5.1 extract response body\r",
							"var responseBody=pm.response.json();\r",
							"\r",
							"//step 5.2 extract response body for each name\r",
							"var res_name=responseBody.name;\r",
							"var res_job=responseBody.job;\r",
							"var res_id=responseBody.id;\r",
							"var res_date=responseBody.createdAt;\r",
							"res_date=res_date.slice(0,10);\r",
							" \r",
							"// step 5.3 validate respons body\r",
							"pm.test(\"validate responseBody param: name\",function ()\r",
							"{\r",
							"pm.expect(res_name).to.eql(req_name)\r",
							"})\r",
							"pm.test(\"Validate responseBody param: job\",function () {\r",
							"pm.expect(res_job).to.eql(req_job)\r",
							"})\r",
							"pm.test(\"validate responseBody param: id\", function()\r",
							"{\r",
							"pm.expect(res_id).to.not.null;\r",
							"pm.expect(res_id).to.not.eql(0);\r",
							"})\r",
							"pm.test(\"validate responseBody param: date\",function()\r",
							"{\r",
							"pm.expect(res_date).to.eql(actualDate);\r",
							"}) \r",
							"break;\r",
							"}\r",
							"}  \r",
							"\r",
							"\r",
							""
						],
						"type": "text/javascript"
					}
				},
				{
					"listen": "prerequest",
					"script": {
						"exec": [
							""
						],
						"type": "text/javascript"
					}
				}
			],
			"protocolProfileBehavior": {
				"disabledSystemHeaders": {}
			},
			"request": {
				"auth": {
					"type": "noauth"
				},
				"method": "POST",
				"header": [
					{
						"key": "",
						"value": "",
						"type": "text",
						"disabled": true
					}
				],
				"body": {
					"mode": "raw",
					"raw": "{\r\n    \"name\": \"morpheus\",\r\n    \"job\": \"leader\"\r\n}",
					"options": {
						"raw": {
							"language": "json"
						}
					}
				},
				"url": {
					"raw": "{{Post_URL}}",
					"host": [
						"{{Post_URL}}"
					]
				}
			},
			"response": []
		},
		{
			"name": "Get_test",
			"event": [
				{
					"listen": "test",
					"script": {
						"exec": [
							"//step 1 fetching collection variables into local variables\r",
							"var start =pm.collectionVariables.get(\"count_start\");\r",
							"var end =pm.collectionVariables.get(\"count_end\");\r",
							"//step 2 extract status code\r",
							"var statuscode=pm.response.code;\r",
							"//step 3 compare status code\r",
							"\r",
							"for (i=start;i<end;i++)\r",
							"{\r",
							"if(statuscode !=201)\r",
							"{ \r",
							"      \r",
							"if (start<eval(end-1))\r",
							"{\r",
							"pm.collectionVariables.set(\"count_start\",eval(start+1)); \r",
							"postman.setNextRequest(\"Get_test\");\r",
							"}\r",
							"else\r",
							"{\r",
							"pm.collectionVariables.set(\"count_start\",0);\r",
							"postman.setNextRequest(null);\r",
							"pm.test(\"Status code is 200\", function () {\r",
							"pm.response.to.have.status(200);\r",
							"});\r",
							"}\r",
							"}\r",
							"else\r",
							"{\r",
							"               \r",
							"//step 4 declare expected results\r",
							"// step 4.1 declare expected result array for response parameters\r",
							"const id =[1,2,3,4,5,6];\r",
							"const email =[\"george.bluth@reqres.in\",\"janet.weaver@reqres.in\", \"emma.wong@reqres.in\", \"eve.holt@reqres.in\", \"charles.morris@reqres.in\",\"tracey.ramos@reqres.in\"];\r",
							"const f_name =[\"George\",\"Janet\",\"Emma\",\"Eve\",\"Charles\",\"Tracey\"];\r",
							"const l_name =[\"Bluth\",\"Weaver\",\"Wong\", \"Holt\",\"Morris\",\"Ramos\"];\r",
							"\r",
							"// step 5 validate responsebody \r",
							"//step 5.1 extract responsebody\r",
							"var responseBody=pm.response.json();\r",
							"var dataArray=responseBody.data;\r",
							"var count=Object.keys(dataArray).length;\r",
							"\r",
							"// step 5.2 extract responsebody for each name\r",
							"for (i=0; i<count; i++)\r",
							"{\r",
							"var exp_id= id[i];\r",
							"var exp_email= email[i];\r",
							"var exp_f_name= f_name[i];\r",
							"var exp_l_name= l_name[i];\r",
							"\r",
							"var res_id= responseBody.data[i].id;\r",
							"var res_email= responseBody.data[i].email;\r",
							"var res_f_name= responseBody.data[i].first_name;\r",
							"var res_l_name= responseBody.data[i].last_name;\r",
							"\r",
							"// step 5.3 validate response body\r",
							"pm.test(\"validate id at index \" +i ,\r",
							"function()\r",
							"{\r",
							"pm.expect(res_id).to.eqls(exp_id);\r",
							"})\r",
							"pm.test(\"validate email at index \" +i ,\r",
							"function()\r",
							"{\r",
							"pm.expect(res_email).to.eqls(exp_email);\r",
							"})\r",
							"pm.test(\"validate first name at index \" +i ,\r",
							"function()\r",
							"{\r",
							"pm.expect(res_f_name).to.eqls(exp_f_name)\r",
							"})\r",
							"pm.test(\"validate last name at index \" +i ,\r",
							"function()\r",
							"{\r",
							"pm.expect(res_l_name).to.eqls(exp_l_name)\r",
							"})\r",
							" break; \r",
							"}\r",
							"}\r",
							"}\r",
							""
						],
						"type": "text/javascript"
					}
				}
			],
			"protocolProfileBehavior": {
				"disableBodyPruning": true
			},
			"request": {
				"method": "GET",
				"header": [],
				"body": {
					"mode": "raw",
					"raw": "",
					"options": {
						"raw": {
							"language": "json"
						}
					}
				},
				"url": {
					"raw": "{{Get_URL}}",
					"host": [
						"{{Get_URL}}"
					]
				}
			},
			"response": []
		},
		{
			"name": "Patch_test",
			"event": [
				{
					"listen": "test",
					"script": {
						"exec": [
							"//step 1 fetching collection variables into local variables\r",
							"var start=pm.collectionVariables.get(\"count_start\");\r",
							"var end=pm.collectionVariables.get(\"count_end\");\r",
							"\r",
							"// step 2 fetch status code\r",
							"var statuscode=pm.response.code;\r",
							"//step 3 compare the status code\r",
							"for (i=start;i<end;i++)\r",
							"{\r",
							"if (statuscode !=201)\r",
							"{\r",
							"if (start<eval(end-1))\r",
							"{\r",
							"pm.collectionVariables.set(\"count_start\",eval(start+1));\r",
							"postman.setNextRequest(\"Patch_test\");\r",
							"} \r",
							"else\r",
							"{\r",
							"postman.setNextRequest(null);\r",
							"pm.collectionVariables.set(\"count_start\",0);\r",
							"\r",
							"pm.test(\"Status code is 200\", function () {\r",
							"pm.response.to.have.status(200);\r",
							"});\r",
							"}\r",
							"}\r",
							"else\r",
							"{  \r",
							"//step 4 declare expected results\r",
							"//step 4.1 declare expected date\r",
							"//var actualDate= new Date().toJSON().slice(0,10);\r",
							"var cur_Date= new Date().toISOString().slice(0,10);\r",
							"//step 4.2 fetch request parameters from request body\r",
							"var requestBody=pm.request.body.raw;\r",
							"requestBody=JSON.parse(requestBody);\r",
							"var req_name=requestBody.name;\r",
							"var req_job=requestBody.job;\r",
							"\r",
							"//step 5 validate response body\r",
							"//step 5.1 extract response body\r",
							"var responseBody=pm.response.json();\r",
							"\r",
							"//step 5.2 extract response body for each name\r",
							"var res_name=responseBody.name;\r",
							"var res_job=responseBody.job;\r",
							"var res_id=responseBody.id;\r",
							"var res_date=responseBody.updatedAt;\r",
							"res_date=res_date.slice(0,10);\r",
							" \r",
							"// step 5.3 validate respons body\r",
							"pm.test(\"validate responseBody param: name\",function ()\r",
							"{\r",
							"    pm.expect(res_name).to.eql(req_name)\r",
							"})\r",
							"pm.test(\"Validate responseBody param: job\",function () {\r",
							"    pm.expect(res_job).to.eql(req_job)\r",
							"})\r",
							"pm.test(\"validate responseBody param: date\",function()\r",
							"{\r",
							"    pm.expect(res_date).to.eql(cur_Date);\r",
							"})\r",
							" break;\r",
							"}\r",
							"}  \r",
							""
						],
						"type": "text/javascript"
					}
				},
				{
					"listen": "prerequest",
					"script": {
						"exec": [
							"var name = pm.variables.replaceIn('{{$randomFirstName}}')\r",
							"pm.collectionVariables.set(\"collect_name\",name);\r",
							"\r",
							"var job =pm.variables.replaceIn('{{$randomJobType}}');\r",
							"pm.collectionVariables.set(\"collect_job\",job);\r",
							""
						],
						"type": "text/javascript"
					}
				}
			],
			"request": {
				"method": "PATCH",
				"header": [],
				"body": {
					"mode": "raw",
					"raw": "{\r\n    \"name\": \"{{collect_name}}\",\r\n    \"job\": \"{{collect_job}}\"\r\n}",
					"options": {
						"raw": {
							"language": "json"
						}
					}
				},
				"url": {
					"raw": "{{Patch_URL}}",
					"host": [
						"{{Patch_URL}}"
					]
				}
			},
			"response": []
		},
		{
			"name": "Put_test",
			"event": [
				{
					"listen": "test",
					"script": {
						"exec": [
							"//step 1 fetching collection variables into local variables\r",
							"var start=pm.collectionVariables.get(\"count_start\");\r",
							"var end=pm.collectionVariables.get(\"count_end\");\r",
							"\r",
							"//step 2 fetch status code\r",
							"var statuscode=pm.response.code;\r",
							"//step 3 compare the status code\r",
							"for (i=start;i<end;i++)\r",
							"{\r",
							"if (statuscode !=200)\r",
							"{\r",
							"if (start<eval(end-1))\r",
							"{\r",
							"pm.collectionVariables.set(\"count_start\",eval(start+1));\r",
							"postman.setNextRequest(\"Put_test\");\r",
							"} \r",
							"else\r",
							"{\r",
							"postman.setNextRequest(null);\r",
							"pm.collectionVariables.set(\"count_start\",0);\r",
							"\r",
							"pm.test(\"Status code is 200\", function () {\r",
							"pm.response.to.have.status(200);\r",
							"});\r",
							"}\r",
							"}\r",
							"else\r",
							"{\r",
							"//step 4 declare expected results\r",
							"//step 4.1 declare expected date\r",
							"//var actualDate= new Date().toJSON().slice(0,10);\r",
							"var cur_Date= new Date().toISOString().slice(0,10);\r",
							"//step 4.2 fetch request parameters from request body\r",
							"var requestBody=pm.request.body.raw;\r",
							"requestBody=JSON.parse(requestBody);\r",
							"var req_name=requestBody.name;\r",
							"var req_job=requestBody.job;\r",
							"\r",
							"//step 5 validate response body\r",
							"//step 5.1 extract response body\r",
							"var responseBody=pm.response.json();\r",
							"\r",
							"//step 5.2 extract response body for each name\r",
							"var res_name=responseBody.name;\r",
							"var res_job=responseBody.job;\r",
							"var res_id=responseBody.id;\r",
							"var res_date=responseBody.updatedAt;\r",
							"res_date=res_date.slice(0,10);\r",
							" \r",
							"// step 5.3 validate respons body\r",
							"pm.test(\"validate responseBody param: name\",function ()\r",
							"{\r",
							"    pm.expect(res_name).to.eql(req_name)\r",
							"})\r",
							"pm.test(\"Validate responseBody param: job\",function () {\r",
							"    pm.expect(res_job).to.eql(req_job)\r",
							"})\r",
							"pm.test(\"validate responseBody param: date\",function()\r",
							"{\r",
							"    pm.expect(res_date).to.eql(cur_Date);\r",
							"})\r",
							"break;\r",
							"}\r",
							"}  \r",
							""
						],
						"type": "text/javascript"
					}
				},
				{
					"listen": "prerequest",
					"script": {
						"exec": [
							""
						],
						"type": "text/javascript"
					}
				}
			],
			"request": {
				"method": "PUT",
				"header": [],
				"body": {
					"mode": "raw",
					"raw": "{\r\n    \"name\": \"morpheus\",\r\n    \"job\": \"zion resident\"\r\n}",
					"options": {
						"raw": {
							"language": "json"
						}
					}
				},
				"url": {
					"raw": "{{Put_URL}}",
					"host": [
						"{{Put_URL}}"
					]
				}
			},
			"response": []
		}
	],
	"event": [
		{
			"listen": "prerequest",
			"script": {
				"type": "text/javascript",
				"exec": [
					""
				]
			}
		},
		{
			"listen": "test",
			"script": {
				"type": "text/javascript",
				"exec": [
					""
				]
			}
		}
	],
	"variable": [
		{
			"key": "count_start",
			"value": "0",
			"type": "string"
		},
		{
			"key": "count_end",
			"value": "5",
			"type": "string"
		},
		{
			"key": "collect_name",
			"value": ""
		},
		{
			"key": "collect_job",
			"value": ""
		}
	]
}